{
  "project_info": {
    "project_number": "734816963355",
    "firebase_url": "https://rntemplate-277e5.firebaseio.com",
    "project_id": "rntemplate-277e5",
    "storage_bucket": "rntemplate-277e5.appspot.com"
  },
  "client": [
    {
      "client_info": {
        "mobilesdk_app_id": "1:734816963355:android:aec511a52e31f225",
        "android_client_info": {
          "package_name": "com.rntemplate"
        }
      },
      "oauth_client": [
        {
          "client_id": "734816963355-gqfngeisijsb4n7sj1fs7gug9t4b8c9b.apps.googleusercontent.com",
          "client_type": 1,
          "android_info": {
            "package_name": "com.rntemplate",
            "certificate_hash": "b72973bffeb41bed62c28f3496cc107473ab7cef"
          }
        },
        {
          "client_id": "734816963355-i9ug0b4an48p75og78csb58e6ob4p8rq.apps.googleusercontent.com",
          "client_type": 3
        }
      ],
      "api_key": [
        {
          "current_key": "AIzaSyBCoGisVWnJnYCD8wpbh9hKZDLWhC_x20E"
        }
      ],
      "services": {
        "appinvite_service": {
          "other_platform_oauth_client": [
            {
              "client_id": "734816963355-i9ug0b4an48p75og78csb58e6ob4p8rq.apps.googleusercontent.com",
              "client_type": 3
            }
          ]
        }
      }
    }
  ],
  "configuration_version": "1"
}